%YAML 1.1
%TAG !u! tag:unity3d.com,2011:
--- !u!78 &1
TagManager:
  serializedVersion: 2
  tags:
  - Fire
  - PlayerCamera
  - Enemy
  - HostCanvas
  - ClientCanvas
  - Ammo
  - Health
  - Barrier
  - Cover
  - Head
  - Body
  - TeleportLocation1
  - TeleportLocation2
  - Interactable
  - interactableObjective
  - EnemyHead
  - headshotPickup
  layers:
  - Default
  - TransparentFX
  - Ignore Raycast
  - 
  - Water
  - UI
  - 
  - 
  - Tracer
  - Gun
  - 
  - 
  - 
  - 
  - 
  - 
  - 
  - 
  - 
  - 
  - 
  - 
  - 
  - 
  - 
  - 
  - 
  - 
  - 
  - 
  - 
  - 
  m_SortingLayers:
  - name: Default
    uniqueID: 0
    locked: 0
  - name: Background
    uniqueID: 1093696345
    locked: 0
  - name: Foreground
    uniqueID: 1859086223
    locked: 0
  - name: Characters
    uniqueID: 3940858523
    locked: 0
  - name: UI
    uniqueID: 771169021
    locked: 0
